module bitbucket.org/snapmartinc/newrelic-context

go 1.12

require (
	github.com/alicebob/gopher-json v0.0.0-20180125190556-5a6b3ba71ee6 // indirect
	github.com/alicebob/miniredis v2.5.0+incompatible
	github.com/go-redis/redis/v8 v8.0.0-beta.1
	github.com/gomodule/redigo v2.0.0+incompatible // indirect
	github.com/jinzhu/gorm v1.9.11
	github.com/newrelic/go-agent v2.14.1+incompatible
	github.com/yuin/gopher-lua v0.0.0-20190514113301-1cd887cd7036 // indirect
)
